module gitlab.com/zx42/go-deps

go 1.13

require (
	github.com/pkg/errors v0.8.1 // indirect
	github.com/stretchr/testify v1.3.0 // indirect
	go.uber.org/atomic v1.3.2 // indirect
	go.uber.org/multierr v1.1.0 // indirect
	go.uber.org/zap v1.9.1
)
